"44823","Hong Kong","HK","Hong Kong","114.157692","22.285521"
"44824","Singapore","SG","Singapore","103.850067","1.289670"
"44825","Bangkok","TH","Thailand","100.516670","13.750000"
"44826","London","GB","United Kingdom","-0.125740","51.508530"
"44827","Macau","MO","Macau","113.546112","22.200560"
"44828","Kuala Lumpur","MY","Malaysia","101.686531","3.141200"
"44829","Shenzhen","CN","China","114.068298","22.545540"
"44830","New York City","US","United States","-74.005966","40.714272"
"44831","Antalya","TR","Turkey","30.689720","36.912498"
"44832","Paris","FR","France","2.348800","48.853409"
"44833","Istanbul","TR","Turkey","28.949659","41.013840"
"44834","Rome","IT","Italy","12.483900","41.894741"
"44835","Dubai","AE","United Arab Emirates","55.279999","25.252220"
"44836","Guangzhou","CN","China","113.250000","23.116671"
"44837","Phuket","TH","Thailand","98.398102","7.890590"
"44839","Pattaya","TH","Thailand","100.883331","12.933330"
"44840","Taipei","TW","Taiwan","121.531853","25.047760"
"44841","Prague","CZ","Czech Republic","14.420760","50.088039"
"44842","Shanghai","CN","China","121.458061","31.222219"
"44843","Las Vegas","US","United States","-115.137222","36.174969"
"44844","Miami","US","United States","-80.193657","25.774269"
"44845","Barcelona","ES","Spain","2.158990","41.388790"
"44846","Moscow","RU","Russia","37.615559","55.752220"
"44847","Beijing","CN","China","116.397232","39.907501"
"44848","Los Angeles","US","United States","-118.243683","34.052231"
"44849","Budapest","HU","Hungary","19.039909","47.498009"
"44850","Vienna","AT","Austria","16.372080","48.208488"
"44851","Amsterdam","NL","Netherlands","4.889690","52.374031"
"44852","Sofia","BG","Bulgaria","23.324150","42.697510"
"44853","Madrid","ES","Spain","-3.702560","40.416500"
"44854","Orlando","US","United States","-81.379242","28.538340"
"44855","Ho Chi Minh City","VN","Vietnam","106.666672","10.750000"
"44856","Lima","PE","Peru","-77.028236","-12.043180"
"44857","Berlin","DE","Germany","13.410530","52.524368"
"44858","Tokyo","JP","Japan","139.581299","35.614880"
"44859","Warsaw","PL","Poland","21.011780","52.229771"
"44860","Chennai","IN","India","80.278473","13.087840"
"44861","Cairo","EG","Egypt","31.249670","30.062630"
"44862","Nairobi","KE","Kenya","36.816669","-1.283330"
"44863","Hangzhou","CN","China","120.168892","30.255280"
"44864","Milan","IT","Italy","9.189510","45.464272"
"44865","San Francisco","US","United States","-122.419418","37.774929"
"44866","Buenos Aires","AR","Argentina","-58.377232","-34.613152"
"44867","Venice","IT","Italy","12.326670","45.438610"
"44868","Mexico City","MX","Mexico","-99.127663","19.428471"
"44869","Dublin","IE","Ireland","-6.267190","53.343990"
"44870","Seoul","KR","Korea","126.977829","37.568260"
"44871","Muğla","TR","Turkey","28.366501","37.218071"
"44872","Mumbai","IN","India","72.847939","19.014410"
"44873","Denpasar","ID","Indonesia","115.216667","-8.650000"
"44874","Delhi","IN","India","77.224449","28.635759"
"44875","Toronto","CA","Canada","-79.416298","43.700111"
"44876","Zhuhai","CN","China","113.567780","22.276939"
"44877","St. Petersburg","RU","Russia","30.264170","59.894440"
"44878","Burgas","BG","Bulgaria","27.467810","42.506062"
"44879","Sydney","AU","Australia","151.207321","-33.867851"
"44881","Munich","DE","Germany","11.575490","48.137428"
"44882","Johannesburg","ZA","South Africa","28.043631","-26.202271"
"44883","Cancun","MX","Mexico","-86.846558","21.174290"
"44884","Edirne","TR","Turkey","26.555969","41.677189"
"44886","Bucharest","RO","Romania","26.106260","44.432251"
"44887","Punta Cana","DO","Dominican Republic","-68.404312","18.581820"
"44888","Agra","IN","India","78.016670","27.183331"
"44889","Jaipur","IN","India","75.816673","26.916670"
"44890","Brussels","BE","Belgium","4.348780","50.850449"
"44891","Nice","FR","France","7.266080","43.703129"
"44892","Chiang Mai","TH","Thailand","98.984680","18.790380"
"44894","Lisbon","PT","Portugal","-9.133330","38.716671"
"44896","Marrakech","MA","Marocco","-8.008280","31.631479"
"44897","Jakarta","ID","Indonesia","106.845131","-6.214620"
"44899","Hanoi","VN","Vietnam","105.841171","21.024500"
"44900","Honolulu","US","United States","-157.858337","21.306940"
"44901","Manila","PH","Philippines","120.982201","14.604200"
"44902","Guilin","CN","China","110.286392","25.281940"
"44903","Auckland","NZ","New Zealand","174.766663","-36.866669"
"44904","Siem Reap","KH","Cambodia","103.849998","13.366670"
"44905","Sousse","TN","Tunisia","10.636990","35.825390"
"44907","Vancouver","CA","Canada","-123.119339","49.249660"
"44908","Abu Dhabi","AE","United Arab Emirates","54.366669","24.466669"
"44909","Kiev","UA","Ukraine","30.523800","50.454659"
"44911","Florence","IT","Italy","11.250000","43.766670"
"44912","Rio de Janeiro","BR","Brazil","-43.207500","-22.902781"
"44913","Melbourne","AU","Australia","144.963318","-37.813999"
"44914","Washington DC","US","United States","-77.036369","38.895111"
"44916","Christchurch","NZ","New Zealand","172.633331","-43.533329"
"44917","Frankfurt","DE","Germany","8.683330","50.116669"
"44918","Baku","AZ","Azerbaijan","49.892010","40.377670"
"44919","Sao Paulo","BR","Brazil","-46.636108","-23.547501"
"44920","Harare","ZW","Zimbabwe","31.053890","-17.829350"
"44921","Kolkata","IN","India","88.369720","22.569719"
"44922","Nanjing","CN","China","118.777779","32.061668"
